{
  "project_info": {
    "project_number": "572239606042",
    "project_id": "fourdogs-3265d",
    "storage_bucket": "fourdogs-3265d.appspot.com"
  },
  "client": [
    {
      "client_info": {
        "mobilesdk_app_id": "1:572239606042:android:2c436f1ea26f2a8a803ca3",
        "android_client_info": {
          "package_name": "com.example.zampon"
        }
      },
      "oauth_client": [
        {
          "client_id": "572239606042-36ju83i49t3qq78arrhih4pc6h86qsoh.apps.googleusercontent.com",
          "client_type": 1,
          "android_info": {
            "package_name": "com.example.zampon",
            "certificate_hash": "115a7fb7ebf8f76a2a4fc42670d842adbef93d33"
          }
        },
        {
          "client_id": "572239606042-7fbonunjp10inerbvnsla2gon5avp7cf.apps.googleusercontent.com",
          "client_type": 1,
          "android_info": {
            "package_name": "com.example.zampon",
            "certificate_hash": "19e4a523a993c7c77e7f7b772eecc5670bd17101"
          }
        },
        {
          "client_id": "572239606042-an01kee2gpo2cknalj3kl3mq5hbgq1e9.apps.googleusercontent.com",
          "client_type": 1,
          "android_info": {
            "package_name": "com.example.zampon",
            "certificate_hash": "897e42ed637a5f04b5e8206710ef04fa4249911d"
          }
        },
        {
          "client_id": "572239606042-99omr4sfk48f2pigdeatb3jv5bndfl8n.apps.googleusercontent.com",
          "client_type": 3
        }
      ],
      "api_key": [
        {
          "current_key": "AIzaSyBEkJpJB6dioLFiDRvY0vjRsdVa_45e2fo"
        }
      ],
      "services": {
        "appinvite_service": {
          "other_platform_oauth_client": [
            {
              "client_id": "572239606042-99omr4sfk48f2pigdeatb3jv5bndfl8n.apps.googleusercontent.com",
              "client_type": 3
            }
          ]
        }
      }
    },
    {
      "client_info": {
        "mobilesdk_app_id": "1:572239606042:android:e906401ec89f41ea803ca3",
        "android_client_info": {
          "package_name": "com.zampon.mobile"
        }
      },
      "oauth_client": [
        {
          "client_id": "572239606042-0bvbj42rv5omehkasrf99pi4k2k9g4vm.apps.googleusercontent.com",
          "client_type": 1,
          "android_info": {
            "package_name": "com.zampon.mobile",
            "certificate_hash": "897e42ed637a5f04b5e8206710ef04fa4249911d"
          }
        },
        {
          "client_id": "572239606042-n03h6lnvh7ocfj9i40cmdnj549jdph40.apps.googleusercontent.com",
          "client_type": 1,
          "android_info": {
            "package_name": "com.zampon.mobile",
            "certificate_hash": "115a7fb7ebf8f76a2a4fc42670d842adbef93d33"
          }
        },
        {
          "client_id": "572239606042-99omr4sfk48f2pigdeatb3jv5bndfl8n.apps.googleusercontent.com",
          "client_type": 3
        }
      ],
      "api_key": [
        {
          "current_key": "AIzaSyBEkJpJB6dioLFiDRvY0vjRsdVa_45e2fo"
        }
      ],
      "services": {
        "appinvite_service": {
          "other_platform_oauth_client": [
            {
              "client_id": "572239606042-99omr4sfk48f2pigdeatb3jv5bndfl8n.apps.googleusercontent.com",
              "client_type": 3
            }
          ]
        }
      }
    }
  ],
  "configuration_version": "1"
}